AR20_Pedalbox/Matlab/etc_matlab_noise/data/AR20_ETC_WF_004.csv

#Digilent WaveForms Oscilloscope Acquisition
#Device Name: Discovery2
#Serial Number: DEMO
#Date Time: 2020-01-20 11:10:42.929
#Sample rate: 1600Hz
#Samples: 8192
#Trigger: Source: Channel 1 Type: Edge Condition: Rising Level: 2 V Hyst.: Auto HoldOff: 0 s
#Channel 1: Range: 500 mV/div Offset: -2.5 V
#Channel 2: Range: 500 mV/div Offset: -2.5 V

Time (s),Channel 1 (V),Channel 2 (V)
-1.5594140625000001,0.95303104186198939,3.5943015925232573
-1.5587890625000003,0.95303104186198939,3.5939707141394366
-1.5581640624999999,0.95303104186198939,3.5939707141394366
-1.5575390625000001,0.95303104186198939,3.5943015925232573
-1.5569140625000002,0.95303104186198939,3.5946324709070785
-1.5562890624999999,0.95336117838090717,3.5949633492908988
-1.5556640625,0.95303104186198939,3.5943015925232573
-1.5550390625000001,0.95303104186198939,3.5939707141394366
-1.5544140625000002,0.95270090534307139,3.5933089573717951
-1.5537890624999999,0.95237076882415339,3.592316322220332
-1.5531640625000001,0.95237076882415339,3.592316322220332
-1.5525390625000002,0.95237076882415339,3.592316322220332
-1.5519140625000003,0.95270090534307117,3.5926472006041528
-1.5512890625,0.95270090534307128,3.5936398357556154
-1.5506640625000001,0.95270090534307128,3.5936398357556154
-1.5500390625000002,0.95270090534307128,3.5936398357556154
-1.5494140624999999,0.95270090534307117,3.5929780789879739
-1.5487890625,0.95237076882415339,3.5926472006041528
-1.5481640625000002,0.95237076882415339,3.5926472006041528
-1.5475390625000003,0.95237076882415339,3.5926472006041528
-1.5469140625,0.95237076882415339,3.5926472006041528
-1.5462890625000001,0.95237076882415339,3.592316322220332
-1.5456640625000002,0.95237076882415339,3.592316322220332
-1.5450390624999999,0.95237076882415339,3.5926472006041528
-1.5444140625,0.95237076882415339,3.5926472006041528
-1.5437890625000001,0.95270090534307128,3.5933089573717947
-1.5431640625000003,0.95270090534307128,3.5936398357556154
-1.5425390624999999,0.95270090534307128,3.5936398357556154
-1.5419140625000001,0.95270090534307128,3.5933089573717947
-1.5412890625000002,0.95270090534307128,3.5933089573717947
-1.5406640624999999,0.95270090534307128,3.5929780789879744
-1.5400390625,0.95270090534307128,3.5936398357556154
-1.5394140625000001,0.95303104186198939,3.5939707141394366
-1.5387890625000002,0.95303104186198939,3.5939707141394366
-1.5381640624999999,0.95303104186198939,3.5936398357556154
-1.5375390625000001,0.95303104186198939,3.5936398357556154
-1.5369140625000002,0.95270090534307128,3.5936398357556154
-1.5362890625000003,0.95270090534307128,3.5933089573717947
-1.5356640625,0.95270090534307128,3.5929780789879739
-1.5350390625000001,0.95270090534307128,3.5929780789879739
-1.5344140625000002,0.95270090534307128,3.5933089573717947
-1.5337890624999999,0.95270090534307128,3.5933089573717947
-1.5331640625,0.95270090534307128,3.5936398357556154
-1.5325390625000002,0.95270090534307128,3.5936398357556154
-1.5319140625000003,0.95270090534307128,3.5936398357556154
-1.5312890625,0.95270090534307128,3.5936398357556154
-1.5306640625000001,0.95303104186198939,3.5943015925232573
-1.5300390625000002,0.95303104186198939,3.5946324709070785
-1.5294140624999999,0.9530310418619895,3.5949633492908992
-1.5287890625,0.95336117838090728,3.59529422767472
-1.5281640625000001,0.95336117838090728,3.59529422767472
-1.5275390625000003,0.9530310418619895,3.5949633492908992
-1.5269140624999999,0.95336117838090728,3.59529422767472
-1.5262890625000001,0.95336117838090728,3.5956251060585407
-1.5256640625000002,0.95336117838090728,3.5959559844423619
-1.5250390624999999,0.95336117838090728,3.59529422767472
-1.5244140625,0.95336117838090728,3.59529422767472
-1.5237890625000001,0.95303104186198939,3.5949633492908992
-1.5231640625000002,0.95336117838090717,3.59529422767472
-1.5225390624999999,0.95336117838090717,3.5952942276747195
-1.5219140625000001,0.95303104186198939,3.5946324709070785
-1.5212890625000002,0.95303104186198939,3.5946324709070785
-1.5206640625000003,0.95336117838090717,3.5949633492908992
-1.5200390625,0.95336117838090728,3.5949633492908992
-1.5194140625000001,0.95336117838090728,3.59529422767472
-1.5187890625000002,0.95336117838090728,3.5949633492908992
-1.5181640624999999,0.95336117838090728,3.59529422767472
-1.5175390625,0.95336117838090728,3.5956251060585407
-1.5169140625000002,0.95336117838090728,3.59529422767472
-1.5162890625000003,0.9530310418619895,3.5946324709070789
-1.5156640625,0.95303104186198939,3.5946324709070785
-1.5150390625000001,0.95303104186198939,3.5936398357556154
-1.5144140625000002,0.95303104186198939,3.5939707141394366
-1.5137890624999999,0.9530310418619895,3.5946324709070789
-1.5131640625,0.95336117838090728,3.59529422767472
-1.5125390625000001,0.95336117838090728,3.5956251060585407
-1.5119140625000003,0.95336117838090728,3.5959559844423619
-1.5112890624999999,0.95336117838090728,3.5959559844423619
-1.5106640625000001,0.95336117838090728,3.5959559844423619
-1.5100390625000002,0.95336117838090728,3.5959559844423619
-1.5094140624999999,0.95336117838090728,3.5956251060585407
-1.5087890625,0.95336117838090728,3.59529422767472
-1.5081640625000001,0.95336117838090728,3.5949633492908992
-1.5075390625000002,0.95336117838090728,3.59529422767472
-1.5069140624999999,0.95336117838090728,3.59529422767472
-1.5062890625000001,0.95336117838090728,3.5956251060585407
-1.5056640625000002,0.95336117838090728,3.5949633492908992
-1.5050390625000003,0.95336117838090728,3.5949633492908992
-1.5044140625,0.95336117838090728,3.5956251060585407
-1.5037890625000001,0.95336117838090728,3.5956251060585407
-1.5031640625000002,0.95336117838090728,3.5956251060585407
-1.5025390624999999,0.95336117838090728,3.5952942276747204
-1.5019140625,0.95336117838090728,3.5959559844423619
-1.5012890625000002,0.95336117838090728,3.59529422767472
-1.5006640625000003,0.95336117838090728,3.59529422767472
-1.5000390625,0.95336117838090728,3.59529422767472
-1.4994140625000001,0.95336117838090728,3.5949633492908992
-1.4987890625000002,0.95336117838090728,3.5956251060585407
-1.4981640624999999,0.95336117838090728,3.5956251060585407
-1.4975390625,0.95336117838090728,3.5956251060585407
-1.4969140625000001,0.95336117838090728,3.59529422767472
-1.4962890625000003,0.95336117838090728,3.59529422767472
-1.4956640624999999,0.95303104186198939,3.5949633492908992
-1.4950390625000001,0.95336117838090728,3.59529422767472
-1.4944140625000002,0.95336117838090728,3.59529422767472
-1.4937890624999999,0.95336117838090728,3.5949633492908992
-1.4931640625,0.95336117838090728,3.59529422767472
-1.4925390625000001,0.95336117838090728,3.59529422767472
-1.4919140625000002,0.95336117838090728,3.59529422767472
-1.4912890624999999,0.95336117838090728,3.5956251060585407
-1.4906640625000001,0.95336117838090728,3.5959559844423619
-1.4900390625000002,0.95336117838090728,3.5959559844423619
-1.4894140625000003,0.9530310418619895,3.5949633492908997
-1.4887890625,0.95303104186198939,3.5943015925232573
-1.4881640625000001,0.95303104186198939,3.5949633492908992
-1.4875390625000002,0.95336117838090728,3.5956251060585407
-1.4869140624999999,0.9530310418619895,3.59529422767472
-1.4862890625,0.95336117838090728,3.59529422767472
-1.4856640625000002,0.95336117838090728,3.5956251060585407
-1.4850390625000003,0.95336117838090728,3.5956251060585407
-1.4844140625,0.95336117838090728,3.5956251060585407
-1.4837890625000001,0.95336117838090728,3.5959559844423619
-1.4831640625000002,0.95336117838090728,3.5959559844423619
-1.4825390624999999,0.95336117838090728,3.5959559844423619
-1.4819140625,0.95336117838090728,3.5959559844423619
-1.4812890625000001,0.95336117838090728,3.5956251060585407
-1.4806640625000003,0.95336117838090728,3.5956251060585407
-1.4800390624999999,0.95336117838090728,3.59529422767472
-1.4794140625000001,0.95336117838090728,3.5956251060585407
-1.4787890625000002,0.95336117838090728,3.59529422767472
-1.4781640624999999,0.9530310418619895,3.5946324709070785
-1.4775390625,0.95336117838090728,3.5949633492908992
-1.4769140625000001,0.95336117838090728,3.5956251060585407
-1.4762890625000002,0.95336117838090728,3.5956251060585407
-1.4756640624999999,0.95336117838090728,3.5956251060585411
-1.4750390625000001,0.95336117838090728,3.596286862826183
-1.4744140625000002,0.95303104186198939,3.59529422767472
-1.4737890625000003,0.95336117838090717,3.5956251060585407
-1.4731640625,0.95336117838090728,3.5959559844423619
-1.4725390625000001,0.95336117838090728,3.5956251060585407
-1.4719140625000002,0.95336117838090728,3.5956251060585407
-1.4712890624999999,0.95336117838090728,3.5956251060585407
-1.4706640625,0.95336117838090728,3.5956251060585407
-1.4700390625000002,0.95303104186198939,3.59529422767472
-1.4694140625000003,0.95336117838090717,3.59529422767472
-1.4687890625,0.95303104186198939,3.59529422767472
-1.4681640625000001,0.95336117838090728,3.59529422767472
-1.4675390625000002,0.95336117838090728,3.5959559844423619
-1.4669140624999999,0.95336117838090728,3.59529422767472
-1.4662890625,0.95336117838090728,3.5956251060585407
-1.4656640625000001,0.95336117838090728,3.5959559844423619
-1.4650390625000003,0.95336117838090728,3.5956251060585407
-1.4644140624999999,0.95336117838090728,3.59529422767472
-1.4637890625000001,0.95336117838090728,3.59529422767472
-1.4631640625000002,0.95336117838090728,3.5949633492908992
-1.4625390624999999,0.95336117838090728,3.59529422767472
-1.4619140625,0.95336117838090728,3.59529422767472
-1.4612890625000001,0.95336117838090728,3.5956251060585407
-1.4606640625000002,0.95336117838090728,3.5956251060585407
-1.4600390624999999,0.95336117838090728,3.5956251060585407
-1.4594140625000001,0.95336117838090728,3.5956251060585407
-1.4587890625000002,0.95303104186198939,3.5946324709070785
-1.4581640625000003,0.95303104186198939,3.5949633492908992
-1.4575390625,0.95303104186198939,3.59529422767472
-1.4569140625000001,0.95336117838090728,3.5956251060585407
-1.4562890625000002,0.95336117838090728,3.5956251060585407
-1.4556640624999999,0.95303104186198939,3.5943015925232573
-1.4550390625,0.95303104186198939,3.5943015925232573
-1.4544140625000002,0.95270090534307128,3.5936398357556154
-1.4537890625000003,0.95270090534307128,3.5936398357556154
-1.4531640625,0.95270090534307128,3.5936398357556154
-1.4525390625000001,0.95270090534307128,3.5936398357556154
-1.4519140625000002,0.95270090534307128,3.5936398357556154
-1.4512890624999999,0.95270090534307139,3.5933089573717947
-1.4506640625,0.95303104186198939,3.5936398357556154
-1.4500390625000001,0.95270090534307128,3.5936398357556154
-1.4494140625000003,0.95270090534307128,3.5936398357556154
-1.4487890624999999,0.95270090534307128,3.5939707141394366
-1.4481640625000001,0.95303104186198939,3.5939707141394366
-1.4475390625000002,0.95303104186198939,3.5946324709070785
-1.4469140624999999,0.95336117838090728,3.59529422767472
-1.4462890625,0.95336117838090728,3.5956251060585407
-1.4456640625000001,0.95336117838090728,3.5956251060585407
-1.4450390625000002,0.95336117838090728,3.5949633492908997
-1.4444140624999999,0.95336117838090728,3.5949633492908997
-1.4437890625000001,0.95336117838090728,3.5956251060585407
-1.4431640625000002,0.95336117838090728,3.5956251060585407
-1.4425390625000003,0.95336117838090728,3.5956251060585407
-1.4419140625,0.95336117838090728,3.5956251060585407
-1.4412890625000001,0.95336117838090728,3.5959559844423619
-1.4406640625000002,0.95336117838090728,3.5959559844423619
-1.4400390624999999,0.95336117838090728,3.5959559844423619
-1.4394140625,0.95336117838090728,3.5959559844423619
-1.4387890625000002,0.95336117838090728,3.596286862826183
-1.4381640625000003,0.95336117838090728,3.5959559844423619
-1.4375390625,0.95336117838090728,3.59529422767472
-1.4369140625000001,0.95303104186198939,3.5949633492908992
-1.4362890625000002,0.95336117838090728,3.5959559844423619
-1.4356640624999999,0.95336117838090728,3.5956251060585407
-1.4350390625,0.95336117838090728,3.5956251060585407
-1.4344140625000001,0.95336117838090728,3.5959559844423619
-1.4337890625000003,0.95336117838090728,3.5959559844423619
-1.4331640624999999,0.95336117838090728,3.5956251060585407
-1.4325390625000001,0.95336117838090728,3.59529422767472
-1.4319140625000002,0.95336117838090728,3.59529422767472
-1.4312890624999999,0.95336117838090728,3.5956251060585407
-1.4306640625,0.95336117838090728,3.5956251060585407
-1.4300390625000001,0.95336117838090728,3.5956251060585407
-1.4294140625000002,0.95336117838090728,3.5956251060585407
-1.4287890624999999,0.95336117838090717,3.5949633492908988
-1.4281640625000001,0.95303104186198939,3.5943015925232573
-1.4275390625000002,0.95303104186198939,3.5943015925232573
-1.4269140625000003,0.95303104186198939,3.5939707141394366
-1.4262890625,0.95303104186198939,3.5946324709070785
-1.4256640625000001,0.95336117838090728,3.5949633492908992
-1.4250390625000002,0.95336117838090728,3.5949633492908992
-1.4244140624999999,0.95336117838090728,3.59529422767472
-1.4237890625,0.95336117838090728,3.5956251060585407
-1.4231640625000002,0.95336117838090728,3.5956251060585407
-1.4225390625000003,0.95336117838090728,3.5959559844423619
-1.4219140625,0.95336117838090728,3.5959559844423619
-1.4212890625000001,0.95336117838090728,3.5959559844423619
-1.4206640625000002,0.95336117838090728,3.59529422767472
-1.4200390624999999,0.95336117838090717,3.5952942276747195
-1.4194140625,0.95303104186198939,3.5943015925232573
-1.4187890625000001,0.95303104186198939,3.5939707141394366
-1.4181640625000003,0.95303104186198939,3.5936398357556154
-1.4175390624999999,0.95303104186198939,3.5939707141394366
-1.4169140625000001,0.95303104186198939,3.5939707141394366
-1.4162890625000002,0.95336117838090728,3.5959559844423619
-1.4156640624999999,0.95303104186198939,3.5946324709070785
-1.4150390625,0.95303104186198939,3.5946324709070785
-1.4144140625000001,0.95303104186198939,3.5943015925232573
-1.4137890625000002,0.95303104186198939,3.5939707141394366
-1.4131640624999999,0.95303104186198939,3.5939707141394366
-1.4125390625000001,0.95303104186198939,3.5936398357556154
-1.4119140625000002,0.95303104186198939,3.5936398357556154
-1.4112890625000003,0.95270090534307139,3.5936398357556154
-1.4106640625,0.95303104186198939,3.5936398357556154
-1.4100390625000001,0.95303104186198939,3.5939707141394366
-1.4094140625000002,0.95303104186198939,3.5939707141394366
-1.4087890624999999,0.95303104186198939,3.5939707141394366
-1.4081640625,0.95303104186198939,3.5939707141394366
-1.4075390625000002,0.95303104186198939,3.5943015925232573
-1.4069140625000003,0.95303104186198939,3.5943015925232573
-1.4062890625,0.95303104186198939,3.5939707141394366
-1.4056640625000001,0.95270090534307128,3.5936398357556154
-1.4050390625000002,0.95270090534307128,3.5933089573717947
-1.4044140624999999,0.95270090534307128,3.5933089573717947
-1.4037890625,0.95270090534307128,3.5936398357556154
-1.4031640625000001,0.95270090534307128,3.5936398357556154
-1.4025390625000003,0.95270090534307128,3.5936398357556154
-1.4019140624999999,0.95270090534307128,3.5936398357556154
-1.4012890625000001,0.95270090534307128,3.5936398357556154
-1.4006640625000002,0.95270090534307128,3.5936398357556154
-1.4000390624999999,0.95303104186198939,3.5943015925232578
-1.3994140625,0.95303104186198939,3.5949633492908992
-1.3987890625000001,0.95303104186198939,3.5949633492908992
-1.3981640625000002,0.95303104186198939,3.5943015925232578
-1.3975390624999999,0.95270090534307128,3.5933089573717947
-1.3969140625000001,0.95270090534307128,3.5929780789879739
-1.3962890625000002,0.95270090534307128,3.5933089573717947
-1.3956640625000003,0.95270090534307128,3.5936398357556154
-1.3950390625,0.95270090534307128,3.5936398357556154
-1.3944140625000001,0.95270090534307128,3.5936398357556154
-1.3937890625000002,0.95270090534307128,3.5933089573717947
-1.3931640624999999,0.95270090534307128,3.5933089573717947
-1.3925390625,0.95270090534307128,3.5936398357556154
-1.3919140625000002,0.95270090534307128,3.5936398357556154
-1.3912890625000003,0.95270090534307128,3.5933089573717947
-1.3906640625,0.95270090534307128,3.5936398357556154
-1.3900390625000001,0.95270090534307128,3.5936398357556154
-1.3894140625000002,0.95303104186198939,3.5939707141394366
-1.3887890624999999,0.95270090534307139,3.5936398357556154
-1.3881640625,0.95303104186198939,3.5939707141394366
-1.3875390625000001,0.95303104186198939,3.5939707141394366
-1.3869140625000003,0.95270090534307139,3.5936398357556154
-1.3862890624999999,0.95270090534307128,3.5936398357556154
-1.3856640625000001,0.95270090534307128,3.5936398357556154
-1.3850390625000002,0.95270090534307128,3.5936398357556154
-1.3844140624999999,0.95270090534307128,3.5936398357556154
-1.3837890625,0.95270090534307128,3.5936398357556154
-1.3831640625000001,0.95303104186198939,3.5939707141394366
-1.3825390625000002,0.95270090534307139,3.5936398357556154
-1.3819140624999999,0.95270090534307128,3.5933089573717947
-1.3812890625000001,0.95270090534307128,3.5933089573717947
-1.3806640625000002,0.95270090534307128,3.5936398357556154
-1.3800390625000003,0.95270090534307128,3.5936398357556154
-1.3794140625,0.95270090534307128,3.5933089573717947
-1.3787890625000001,0.95270090534307128,3.5933089573717947
-1.3781640625000002,0.95270090534307128,3.5933089573717947
-1.3775390624999999,0.95270090534307128,3.5936398357556154
-1.3769140625,0.95270090534307128,3.5933089573717947
-1.3762890625000002,0.95270090534307128,3.5936398357556154
-1.3756640625000003,0.95270090534307128,3.5936398357556154
-1.3750390625,0.95270090534307128,3.5933089573717947
-1.3744140625000001,0.95270090534307128,3.5936398357556154
-1.3737890625000002,0.95270090534307128,3.5933089573717947
-1.3731640624999999,0.95270090534307128,3.5933089573717947
-1.3725390625,0.95270090534307128,3.5936398357556154
-1.3719140625000001,0.95270090534307128,3.5933089573717947
-1.3712890625000003,0.95270090534307128,3.5933089573717947
-1.3706640624999999,0.95270090534307128,3.5936398357556154
-1.3700390625000001,0.95270090534307128,3.5936398357556154
-1.3694140625000002,0.95270090534307128,3.5929780789879739
-1.3687890624999999,0.95270090534307128,3.5936398357556154
-1.3681640625,0.95270090534307128,3.5939707141394366
-1.3675390625000001,0.95303104186198939,3.5943015925232573
-1.3669140625000002,0.95303104186198939,3.5939707141394366
-1.3662890624999999,0.95270090534307128,3.5933089573717947
-1.3656640625000001,0.95270090534307128,3.5936398357556154
-1.3650390625000002,0.95270090534307128,3.5939707141394366
-1.3644140625000003,0.95336117838090695,3.5952942276747195
-1.3637890625,0.95336117838090728,3.59529422767472
-1.3631640625000001,0.95303104186198939,3.5949633492908992
-1.3625390625000002,0.95303104186198939,3.5946324709070785
-1.3619140624999999,0.95336117838090728,3.5949633492908992
-1.3612890625,0.95336117838090728,3.5949633492908992
-1.3606640625000002,0.95336117838090728,3.59529422767472
-1.3600390625000003,0.95336117838090728,3.5956251060585407
-1.3594140625,0.95336117838090728,3.5956251060585407
-1.3587890625000001,0.95336117838090728,3.5956251060585407
-1.3581640625000002,0.95336117838090728,3.5956251060585407
-1.3575390624999999,0.95303104186198939,3.5949633492908988
-1.3569140625,0.95303104186198939,3.5943015925232573
-1.3562890625000001,0.95303104186198939,3.5946324709070785
-1.3556640625000003,0.95336117838090717,3.5952942276747195
-1.3550390624999999,0.95336117838090728,3.5956251060585407
-1.3544140625000001,0.95336117838090728,3.59529422767472
-1.3537890625000002,0.95336117838090728,3.5956251060585407
-1.3531640624999999,0.95336117838090728,3.5956251060585407
-1.3525390625,0.95336117838090728,3.59529422767472
-1.3519140625000001,0.95336117838090728,3.5949633492908992
-1.3512890625000002,0.95336117838090728,3.59529422767472
-1.3506640624999999,0.95336117838090717,3.5949633492908992
-1.3500390625000001,0.95303104186198939,3.5946324709070785
-1.3494140625000002,0.95303104186198939,3.5946324709070785
-1.3487890625000003,0.95303104186198939,3.5943015925232573
-1.3481640625,0.95336117838090728,3.5949633492908992
-1.3475390625000001,0.95303104186198939,3.5946324709070785
-1.3469140625000002,0.95336117838090728,3.59529422767472
